{
    "index": {
        "download_fdroid": "Завантажити F-Droid", 
        "gpg_signature": "PGP підпис", 
        "introduction": "F-Droid - це встановлюваний каталог застосунків FOSS (вільного та відкритого програмного забезпечення) для платформи Android. Клієнт спрощує пошук, встановлення та відстеження оновлень на вашому пристрої.", 
        "screenshot": "Скріншот застосунку F-Droid для Android", 
        "title": "Що таке F-Droid?"
    }, 
    "navigation": {
        "about": "Про", 
        "browse": "Огляд", 
        "contribute": "Співпраця", 
        "documentation": "Документи", 
        "forum": "Форум", 
        "issues": "Проблеми", 
        "news": "Новини", 
        "repomaker": "Repomaker"
    }, 
    "package": {
        "author": "Автор", 
        "build_metadata": "Створення метаданих", 
        "changelog": "Зміни", 
        "donate": "Пожертвувати", 
        "download": "Завантажити [file_extension]", 
        "flattr": "Flattr", 
        "gpg_signature": "PGP підпис", 
        "issue_tracker": "Відстеження помилок", 
        "liberapay": "Liberapay", 
        "license": "Ліцензія", 
        "minimum_android_version": "Для цієї версії потрібен Android [android_version] або новіший.", 
        "new_in_version": "Нове у версії [latest_version]", 
        "packages": "Пакети", 
        "permissions": "Дозволи", 
        "signed_by_developer": "Створено та підписано оригінальним розробником.", 
        "signed_by_fdroid": "Створено і підписано F-Droid, і гарантовано відповідає цьому <a href=\"[source_code_url]\"> коду архіву</a>.", 
        "source_code": "Вихідний код", 
        "suggest_downloading_via_fdroid": "Хоча завантаження APK доступні нижче, щоб надати вам вибір, ви повинні знати, що, вибравши цей спосіб, ви не отримаєте сповіщення про оновлення і це менш безпечний спосіб завантаження. Ми рекомендуємо встановити клієнт F-Droid і використовувати його.", 
        "technical_info": "Технічна інформація", 
        "version_info": "<b>Версія [package_version]</b> ([package_version_code]) - Додано на [package_added_date]", 
        "website": "Веб-сайт"
    }, 
    "sidebars": {
        "donate": {
            "bank_transfer_name": "Ім'я", 
            "bitcoin_alt": "Пожертвувати через Bitcoin", 
            "flattr_alt": "Пожертвувати через Flattr", 
            "heading": "Пожертвувати", 
            "liberapay_alt": "Пожертвувати через Liberapay", 
            "paypal_alt": "Пожертвувати через PayPal", 
            "powered_by_donations": "F-Droid підтримується вашими пожертвуваннями!", 
            "via_bank_transfer": "Банківський переказ"
        }, 
        "last_updated": {
            "heading": "Останні оновлення"
        }, 
        "latest_packages": {
            "heading": "Останні застосунки"
        }, 
        "news": {
            "heading": "Новини"
        }, 
        "search": {
            "heading": "Знайти застосунки", 
            "noscript": "Потрібно ввімкнути JavaScript"
        }
    }
}