{
    "index": {
        "download_fdroid": "Scarica F-Droid", 
        "gpg_signature": "Firma PGP", 
        "introduction": "F-Droid è un catalogo di applicazioni FOSS (Free and Open Source Software) installabili per la piattaforma Android. Il client facilita la navigazione, installazione, e tiene traccia degli aggiornamenti nel tuo dispositivo.", 
        "screenshot": "Schermata dell'app F-Droid", 
        "title": "Cos'è F-Droid?"
    }, 
    "navigation": {
        "about": "Informazioni", 
        "browse": "Catalogo", 
        "contribute": "Contribuisci", 
        "documentation": "Documentazione", 
        "forum": "Forum", 
        "issues": "Aiuto", 
        "news": "Notizie", 
        "repomaker": "Crea repo"
    }, 
    "package": {
        "author": "Autore", 
        "build_metadata": "Build Metadata", 
        "changelog": "Cronologia", 
        "donate": "Donazioni", 
        "download": "Scarica [file_extension]", 
        "flattr": "Flattr", 
        "gpg_signature": "Firma PGP", 
        "issue_tracker": "Problemi segnalati", 
        "liberapay": "Liberapay", 
        "license": "Licenza", 
        "minimum_android_version": "Questa versione richiede Android [android_version]  o più recente.", 
        "new_in_version": "Novità nella versione [latest_version]", 
        "packages": "Pacchetti", 
        "permissions": "Autorizzazioni", 
        "signed_by_developer": "È compilata e firmata dallo sviluppatore originale.", 
        "signed_by_fdroid": "È compilata e firmata da F-Droid, e garantito di corrispondere a <a href=\"[source_code_url]\">questa tarball</a>.", 
        "source_code": "Codice sorgente", 
        "suggest_downloading_via_fdroid": "Sebbene tu abbia la scelta di scaricare gli APK qui sotto, dovresti essere consapevole che installandoli in questo modo non riceverai notifiche di aggiornamento ed è un modo meno sicuro di scaricare. Consigliamo di installare ed utilizzare il client F-Droid.", 
        "technical_info": "Informazioni tecniche", 
        "version_info": "<b>Versione [package_version]</b> ([package_version_code]) - Aggiunto il [package_added_date]", 
        "website": "Sito web"
    }, 
    "sidebars": {
        "donate": {
            "bank_transfer_name": "Nome", 
            "bitcoin_alt": "Dona via Bitcoin", 
            "flattr_alt": "Dona via Flattr", 
            "heading": "Donazioni", 
            "liberapay_alt": "Dona con Liberapay", 
            "paypal_alt": "Dona via Paypal", 
            "powered_by_donations": "F-Droid è sostenuto dalle tue donazioni!", 
            "via_bank_transfer": "Trasferimento bancario"
        }, 
        "last_updated": {
            "heading": "Ultimo aggiornamento"
        }, 
        "latest_packages": {
            "heading": "App più recenti"
        }, 
        "news": {
            "heading": "Notizie"
        }, 
        "search": {
            "heading": "Trova app", 
            "noscript": "Richiede JavaScript attivo"
        }
    }
}